<?xml version="1.0" encoding="UTF-8"?>
<!DOCTYPE svg PUBLIC "-//W3C//DTD SVG 1.1//EN" "http://www.w3.org/Graphics/SVG/1.1/DTD/svg11.dtd">
<svg width="300mm" height="207mm" viewBox="0 0 30000 20700" version="1.1" baseProfile="tiny" xmlns="http://www.w3.org/2000/svg" stroke-width="28.222" stroke-linejoin="round" xml:space="preserve">
 <path fill="rgb(255,255,255)" stroke="none" d="M 15055,20745 L 67,20745 67,0 30043,0 30043,20745 15055,20745 Z"/>
 <path fill="none" stroke="rgb(179,179,179)" stroke-linejoin="round" d="M 15473,19709 L 1508,19709 1508,775 29438,775 29438,19709 15473,19709 Z"/>
 <path fill="none" stroke="rgb(179,179,179)" stroke-linejoin="round" d="M 1508,774 L 1508,19708"/>
 <path fill="none" stroke="rgb(179,179,179)" stroke-linejoin="round" d="M 5872,774 L 5872,19708"/>
 <path fill="none" stroke="rgb(179,179,179)" stroke-linejoin="round" d="M 10236,774 L 10236,19708"/>
 <path fill="none" stroke="rgb(179,179,179)" stroke-linejoin="round" d="M 14600,774 L 14600,19708"/>
 <path fill="none" stroke="rgb(179,179,179)" stroke-linejoin="round" d="M 18963,774 L 18963,19708"/>
 <path fill="none" stroke="rgb(179,179,179)" stroke-linejoin="round" d="M 23328,774 L 23328,19708"/>
 <path fill="none" stroke="rgb(179,179,179)" stroke-linejoin="round" d="M 27692,774 L 27692,19708"/>
 <path fill="none" stroke="rgb(179,179,179)" stroke-linejoin="round" d="M 3690,774 L 3690,19708"/>
 <path fill="none" stroke="rgb(179,179,179)" stroke-linejoin="round" d="M 8054,774 L 8054,19708"/>
 <path fill="none" stroke="rgb(179,179,179)" stroke-linejoin="round" d="M 12418,774 L 12418,19708"/>
 <path fill="none" stroke="rgb(179,179,179)" stroke-linejoin="round" d="M 16781,774 L 16781,19708"/>
 <path fill="none" stroke="rgb(179,179,179)" stroke-linejoin="round" d="M 21145,774 L 21145,19708"/>
 <path fill="none" stroke="rgb(179,179,179)" stroke-linejoin="round" d="M 25510,774 L 25510,19708"/>
 <path fill="none" stroke="rgb(179,179,179)" stroke-linejoin="round" d="M 29438,19708 L 1508,19708"/>
 <path fill="none" stroke="rgb(179,179,179)" stroke-linejoin="round" d="M 29438,18806 L 1508,18806"/>
 <path fill="none" stroke="rgb(179,179,179)" stroke-linejoin="round" d="M 29438,17904 L 1508,17904"/>
 <path fill="none" stroke="rgb(179,179,179)" stroke-linejoin="round" d="M 29438,17003 L 1508,17003"/>
 <path fill="none" stroke="rgb(179,179,179)" stroke-linejoin="round" d="M 29438,16101 L 1508,16101"/>
 <path fill="none" stroke="rgb(179,179,179)" stroke-linejoin="round" d="M 29438,15199 L 1508,15199"/>
 <path fill="none" stroke="rgb(179,179,179)" stroke-linejoin="round" d="M 29438,14298 L 1508,14298"/>
 <path fill="none" stroke="rgb(179,179,179)" stroke-linejoin="round" d="M 29438,13396 L 1508,13396"/>
 <path fill="none" stroke="rgb(179,179,179)" stroke-linejoin="round" d="M 29438,12494 L 1508,12494"/>
 <path fill="none" stroke="rgb(179,179,179)" stroke-linejoin="round" d="M 29438,11593 L 1508,11593"/>
 <path fill="none" stroke="rgb(179,179,179)" stroke-linejoin="round" d="M 29438,10691 L 1508,10691"/>
 <path fill="none" stroke="rgb(179,179,179)" stroke-linejoin="round" d="M 29438,9790 L 1508,9790"/>
 <path fill="none" stroke="rgb(179,179,179)" stroke-linejoin="round" d="M 29438,8889 L 1508,8889"/>
 <path fill="none" stroke="rgb(179,179,179)" stroke-linejoin="round" d="M 29438,7987 L 1508,7987"/>
 <path fill="none" stroke="rgb(179,179,179)" stroke-linejoin="round" d="M 29438,7085 L 1508,7085"/>
 <path fill="none" stroke="rgb(179,179,179)" stroke-linejoin="round" d="M 29438,6184 L 1508,6184"/>
 <path fill="none" stroke="rgb(179,179,179)" stroke-linejoin="round" d="M 29438,5282 L 1508,5282"/>
 <path fill="none" stroke="rgb(179,179,179)" stroke-linejoin="round" d="M 29438,4380 L 1508,4380"/>
 <path fill="none" stroke="rgb(179,179,179)" stroke-linejoin="round" d="M 29438,3479 L 1508,3479"/>
 <path fill="none" stroke="rgb(179,179,179)" stroke-linejoin="round" d="M 29438,2577 L 1508,2577"/>
 <path fill="none" stroke="rgb(179,179,179)" stroke-linejoin="round" d="M 29438,1675 L 1508,1675"/>
 <path fill="none" stroke="rgb(179,179,179)" stroke-linejoin="round" d="M 29438,774 L 1508,774"/>
 <path fill="none" stroke="rgb(179,179,179)" stroke-linejoin="round" d="M 29438,19304 L 1508,19304"/>
 <path fill="none" stroke="rgb(179,179,179)" stroke-linejoin="round" d="M 29438,19110 L 1508,19110"/>
 <path fill="none" stroke="rgb(179,179,179)" stroke-linejoin="round" d="M 29438,18981 L 1508,18981"/>
 <path fill="none" stroke="rgb(179,179,179)" stroke-linejoin="round" d="M 29438,18884 L 1508,18884"/>
 <path fill="none" stroke="rgb(179,179,179)" stroke-linejoin="round" d="M 29438,18403 L 1508,18403"/>
 <path fill="none" stroke="rgb(179,179,179)" stroke-linejoin="round" d="M 29438,18208 L 1508,18208"/>
 <path fill="none" stroke="rgb(179,179,179)" stroke-linejoin="round" d="M 29438,18079 L 1508,18079"/>
 <path fill="none" stroke="rgb(179,179,179)" stroke-linejoin="round" d="M 29438,17982 L 1508,17982"/>
 <path fill="none" stroke="rgb(179,179,179)" stroke-linejoin="round" d="M 29438,17501 L 1508,17501"/>
 <path fill="none" stroke="rgb(179,179,179)" stroke-linejoin="round" d="M 29438,17307 L 1508,17307"/>
 <path fill="none" stroke="rgb(179,179,179)" stroke-linejoin="round" d="M 29438,17177 L 1508,17177"/>
 <path fill="none" stroke="rgb(179,179,179)" stroke-linejoin="round" d="M 29438,17080 L 1508,17080"/>
 <path fill="none" stroke="rgb(179,179,179)" stroke-linejoin="round" d="M 29438,16599 L 1508,16599"/>
 <path fill="none" stroke="rgb(179,179,179)" stroke-linejoin="round" d="M 29438,16405 L 1508,16405"/>
 <path fill="none" stroke="rgb(179,179,179)" stroke-linejoin="round" d="M 29438,16276 L 1508,16276"/>
 <path fill="none" stroke="rgb(179,179,179)" stroke-linejoin="round" d="M 29438,16179 L 1508,16179"/>
 <path fill="none" stroke="rgb(179,179,179)" stroke-linejoin="round" d="M 29438,15698 L 1508,15698"/>
 <path fill="none" stroke="rgb(179,179,179)" stroke-linejoin="round" d="M 29438,15503 L 1508,15503"/>
 <path fill="none" stroke="rgb(179,179,179)" stroke-linejoin="round" d="M 29438,15374 L 1508,15374"/>
 <path fill="none" stroke="rgb(179,179,179)" stroke-linejoin="round" d="M 29438,15277 L 1508,15277"/>
 <path fill="none" stroke="rgb(179,179,179)" stroke-linejoin="round" d="M 29438,14796 L 1508,14796"/>
 <path fill="none" stroke="rgb(179,179,179)" stroke-linejoin="round" d="M 29438,14602 L 1508,14602"/>
 <path fill="none" stroke="rgb(179,179,179)" stroke-linejoin="round" d="M 29438,14472 L 1508,14472"/>
 <path fill="none" stroke="rgb(179,179,179)" stroke-linejoin="round" d="M 29438,14375 L 1508,14375"/>
 <path fill="none" stroke="rgb(179,179,179)" stroke-linejoin="round" d="M 29438,13894 L 1508,13894"/>
 <path fill="none" stroke="rgb(179,179,179)" stroke-linejoin="round" d="M 29438,13700 L 1508,13700"/>
 <path fill="none" stroke="rgb(179,179,179)" stroke-linejoin="round" d="M 29438,13571 L 1508,13571"/>
 <path fill="none" stroke="rgb(179,179,179)" stroke-linejoin="round" d="M 29438,13474 L 1508,13474"/>
 <path fill="none" stroke="rgb(179,179,179)" stroke-linejoin="round" d="M 29438,12993 L 1508,12993"/>
 <path fill="none" stroke="rgb(179,179,179)" stroke-linejoin="round" d="M 29438,12798 L 1508,12798"/>
 <path fill="none" stroke="rgb(179,179,179)" stroke-linejoin="round" d="M 29438,12669 L 1508,12669"/>
 <path fill="none" stroke="rgb(179,179,179)" stroke-linejoin="round" d="M 29438,12572 L 1508,12572"/>
 <path fill="none" stroke="rgb(179,179,179)" stroke-linejoin="round" d="M 29438,12091 L 1508,12091"/>
 <path fill="none" stroke="rgb(179,179,179)" stroke-linejoin="round" d="M 29438,11897 L 1508,11897"/>
 <path fill="none" stroke="rgb(179,179,179)" stroke-linejoin="round" d="M 29438,11767 L 1508,11767"/>
 <path fill="none" stroke="rgb(179,179,179)" stroke-linejoin="round" d="M 29438,11670 L 1508,11670"/>
 <path fill="none" stroke="rgb(179,179,179)" stroke-linejoin="round" d="M 29438,11189 L 1508,11189"/>
 <path fill="none" stroke="rgb(179,179,179)" stroke-linejoin="round" d="M 29438,10995 L 1508,10995"/>
 <path fill="none" stroke="rgb(179,179,179)" stroke-linejoin="round" d="M 29438,10866 L 1508,10866"/>
 <path fill="none" stroke="rgb(179,179,179)" stroke-linejoin="round" d="M 29438,10769 L 1508,10769"/>
 <path fill="none" stroke="rgb(179,179,179)" stroke-linejoin="round" d="M 29438,10289 L 1508,10289"/>
 <path fill="none" stroke="rgb(179,179,179)" stroke-linejoin="round" d="M 29438,10094 L 1508,10094"/>
 <path fill="none" stroke="rgb(179,179,179)" stroke-linejoin="round" d="M 29438,9965 L 1508,9965"/>
 <path fill="none" stroke="rgb(179,179,179)" stroke-linejoin="round" d="M 29438,9868 L 1508,9868"/>
 <path fill="none" stroke="rgb(179,179,179)" stroke-linejoin="round" d="M 29438,9387 L 1508,9387"/>
 <path fill="none" stroke="rgb(179,179,179)" stroke-linejoin="round" d="M 29438,9193 L 1508,9193"/>
 <path fill="none" stroke="rgb(179,179,179)" stroke-linejoin="round" d="M 29438,9063 L 1508,9063"/>
 <path fill="none" stroke="rgb(179,179,179)" stroke-linejoin="round" d="M 29438,8966 L 1508,8966"/>
 <path fill="none" stroke="rgb(179,179,179)" stroke-linejoin="round" d="M 29438,8485 L 1508,8485"/>
 <path fill="none" stroke="rgb(179,179,179)" stroke-linejoin="round" d="M 29438,8291 L 1508,8291"/>
 <path fill="none" stroke="rgb(179,179,179)" stroke-linejoin="round" d="M 29438,8162 L 1508,8162"/>
 <path fill="none" stroke="rgb(179,179,179)" stroke-linejoin="round" d="M 29438,8065 L 1508,8065"/>
 <path fill="none" stroke="rgb(179,179,179)" stroke-linejoin="round" d="M 29438,7584 L 1508,7584"/>
 <path fill="none" stroke="rgb(179,179,179)" stroke-linejoin="round" d="M 29438,7389 L 1508,7389"/>
 <path fill="none" stroke="rgb(179,179,179)" stroke-linejoin="round" d="M 29438,7260 L 1508,7260"/>
 <path fill="none" stroke="rgb(179,179,179)" stroke-linejoin="round" d="M 29438,7163 L 1508,7163"/>
 <path fill="none" stroke="rgb(179,179,179)" stroke-linejoin="round" d="M 29438,6682 L 1508,6682"/>
 <path fill="none" stroke="rgb(179,179,179)" stroke-linejoin="round" d="M 29438,6488 L 1508,6488"/>
 <path fill="none" stroke="rgb(179,179,179)" stroke-linejoin="round" d="M 29438,6358 L 1508,6358"/>
 <path fill="none" stroke="rgb(179,179,179)" stroke-linejoin="round" d="M 29438,6261 L 1508,6261"/>
 <path fill="none" stroke="rgb(179,179,179)" stroke-linejoin="round" d="M 29438,5780 L 1508,5780"/>
 <path fill="none" stroke="rgb(179,179,179)" stroke-linejoin="round" d="M 29438,5586 L 1508,5586"/>
 <path fill="none" stroke="rgb(179,179,179)" stroke-linejoin="round" d="M 29438,5457 L 1508,5457"/>
 <path fill="none" stroke="rgb(179,179,179)" stroke-linejoin="round" d="M 29438,5360 L 1508,5360"/>
 <path fill="none" stroke="rgb(179,179,179)" stroke-linejoin="round" d="M 29438,4879 L 1508,4879"/>
 <path fill="none" stroke="rgb(179,179,179)" stroke-linejoin="round" d="M 29438,4684 L 1508,4684"/>
 <path fill="none" stroke="rgb(179,179,179)" stroke-linejoin="round" d="M 29438,4555 L 1508,4555"/>
 <path fill="none" stroke="rgb(179,179,179)" stroke-linejoin="round" d="M 29438,4458 L 1508,4458"/>
 <path fill="none" stroke="rgb(179,179,179)" stroke-linejoin="round" d="M 29438,3977 L 1508,3977"/>
 <path fill="none" stroke="rgb(179,179,179)" stroke-linejoin="round" d="M 29438,3783 L 1508,3783"/>
 <path fill="none" stroke="rgb(179,179,179)" stroke-linejoin="round" d="M 29438,3653 L 1508,3653"/>
 <path fill="none" stroke="rgb(179,179,179)" stroke-linejoin="round" d="M 29438,3556 L 1508,3556"/>
 <path fill="none" stroke="rgb(179,179,179)" stroke-linejoin="round" d="M 29438,3075 L 1508,3075"/>
 <path fill="none" stroke="rgb(179,179,179)" stroke-linejoin="round" d="M 29438,2881 L 1508,2881"/>
 <path fill="none" stroke="rgb(179,179,179)" stroke-linejoin="round" d="M 29438,2752 L 1508,2752"/>
 <path fill="none" stroke="rgb(179,179,179)" stroke-linejoin="round" d="M 29438,2655 L 1508,2655"/>
 <path fill="none" stroke="rgb(179,179,179)" stroke-linejoin="round" d="M 29438,2174 L 1508,2174"/>
 <path fill="none" stroke="rgb(179,179,179)" stroke-linejoin="round" d="M 29438,1979 L 1508,1979"/>
 <path fill="none" stroke="rgb(179,179,179)" stroke-linejoin="round" d="M 29438,1850 L 1508,1850"/>
 <path fill="none" stroke="rgb(179,179,179)" stroke-linejoin="round" d="M 29438,1753 L 1508,1753"/>
 <path fill="none" stroke="rgb(179,179,179)" stroke-linejoin="round" d="M 29438,1272 L 1508,1272"/>
 <path fill="none" stroke="rgb(179,179,179)" stroke-linejoin="round" d="M 29438,1078 L 1508,1078"/>
 <path fill="none" stroke="rgb(179,179,179)" stroke-linejoin="round" d="M 29438,948 L 1508,948"/>
 <path fill="none" stroke="rgb(179,179,179)" stroke-linejoin="round" d="M 29438,851 L 1508,851"/>
 <path fill="none" stroke="rgb(179,179,179)" stroke-linejoin="round" d="M 1508,19858 L 1508,19708"/>
 <path fill="none" stroke="rgb(179,179,179)" stroke-linejoin="round" d="M 1508,19858 L 1508,19708"/>
 <path fill="none" stroke="rgb(179,179,179)" stroke-linejoin="round" d="M 5872,19858 L 5872,19708"/>
 <path fill="none" stroke="rgb(179,179,179)" stroke-linejoin="round" d="M 5872,19858 L 5872,19708"/>
 <path fill="none" stroke="rgb(179,179,179)" stroke-linejoin="round" d="M 10236,19858 L 10236,19708"/>
 <path fill="none" stroke="rgb(179,179,179)" stroke-linejoin="round" d="M 10236,19858 L 10236,19708"/>
 <path fill="none" stroke="rgb(179,179,179)" stroke-linejoin="round" d="M 14600,19858 L 14600,19708"/>
 <path fill="none" stroke="rgb(179,179,179)" stroke-linejoin="round" d="M 14600,19858 L 14600,19708"/>
 <path fill="none" stroke="rgb(179,179,179)" stroke-linejoin="round" d="M 18963,19858 L 18963,19708"/>
 <path fill="none" stroke="rgb(179,179,179)" stroke-linejoin="round" d="M 18963,19858 L 18963,19708"/>
 <path fill="none" stroke="rgb(179,179,179)" stroke-linejoin="round" d="M 23328,19858 L 23328,19708"/>
 <path fill="none" stroke="rgb(179,179,179)" stroke-linejoin="round" d="M 23328,19858 L 23328,19708"/>
 <path fill="none" stroke="rgb(179,179,179)" stroke-linejoin="round" d="M 27692,19858 L 27692,19708"/>
 <path fill="none" stroke="rgb(179,179,179)" stroke-linejoin="round" d="M 27692,19858 L 27692,19708"/>
 <path fill="none" stroke="rgb(179,179,179)" stroke-linejoin="round" d="M 1508,19708 L 29438,19708"/>
 <path fill="none" stroke="rgb(179,179,179)" stroke-linejoin="round" d="M 1358,19708 L 1508,19708"/>
 <path fill="none" stroke="rgb(179,179,179)" stroke-linejoin="round" d="M 1358,19708 L 1508,19708"/>
 <path fill="none" stroke="rgb(179,179,179)" stroke-linejoin="round" d="M 1358,18806 L 1508,18806"/>
 <path fill="none" stroke="rgb(179,179,179)" stroke-linejoin="round" d="M 1358,18806 L 1508,18806"/>
 <path fill="none" stroke="rgb(179,179,179)" stroke-linejoin="round" d="M 1358,17904 L 1508,17904"/>
 <path fill="none" stroke="rgb(179,179,179)" stroke-linejoin="round" d="M 1358,17904 L 1508,17904"/>
 <path fill="none" stroke="rgb(179,179,179)" stroke-linejoin="round" d="M 1358,17003 L 1508,17003"/>
 <path fill="none" stroke="rgb(179,179,179)" stroke-linejoin="round" d="M 1358,17003 L 1508,17003"/>
 <path fill="none" stroke="rgb(179,179,179)" stroke-linejoin="round" d="M 1358,16101 L 1508,16101"/>
 <path fill="none" stroke="rgb(179,179,179)" stroke-linejoin="round" d="M 1358,16101 L 1508,16101"/>
 <path fill="none" stroke="rgb(179,179,179)" stroke-linejoin="round" d="M 1358,15199 L 1508,15199"/>
 <path fill="none" stroke="rgb(179,179,179)" stroke-linejoin="round" d="M 1358,15199 L 1508,15199"/>
 <path fill="none" stroke="rgb(179,179,179)" stroke-linejoin="round" d="M 1358,14298 L 1508,14298"/>
 <path fill="none" stroke="rgb(179,179,179)" stroke-linejoin="round" d="M 1358,14298 L 1508,14298"/>
 <path fill="none" stroke="rgb(179,179,179)" stroke-linejoin="round" d="M 1358,13396 L 1508,13396"/>
 <path fill="none" stroke="rgb(179,179,179)" stroke-linejoin="round" d="M 1358,13396 L 1508,13396"/>
 <path fill="none" stroke="rgb(179,179,179)" stroke-linejoin="round" d="M 1358,12494 L 1508,12494"/>
 <path fill="none" stroke="rgb(179,179,179)" stroke-linejoin="round" d="M 1358,12494 L 1508,12494"/>
 <path fill="none" stroke="rgb(179,179,179)" stroke-linejoin="round" d="M 1358,11593 L 1508,11593"/>
 <path fill="none" stroke="rgb(179,179,179)" stroke-linejoin="round" d="M 1358,11593 L 1508,11593"/>
 <path fill="none" stroke="rgb(179,179,179)" stroke-linejoin="round" d="M 1358,10691 L 1508,10691"/>
 <path fill="none" stroke="rgb(179,179,179)" stroke-linejoin="round" d="M 1358,10691 L 1508,10691"/>
 <path fill="none" stroke="rgb(179,179,179)" stroke-linejoin="round" d="M 1358,9790 L 1508,9790"/>
 <path fill="none" stroke="rgb(179,179,179)" stroke-linejoin="round" d="M 1358,9790 L 1508,9790"/>
 <path fill="none" stroke="rgb(179,179,179)" stroke-linejoin="round" d="M 1358,8888 L 1508,8888"/>
 <path fill="none" stroke="rgb(179,179,179)" stroke-linejoin="round" d="M 1358,8888 L 1508,8888"/>
 <path fill="none" stroke="rgb(179,179,179)" stroke-linejoin="round" d="M 1358,7987 L 1508,7987"/>
 <path fill="none" stroke="rgb(179,179,179)" stroke-linejoin="round" d="M 1358,7987 L 1508,7987"/>
 <path fill="none" stroke="rgb(179,179,179)" stroke-linejoin="round" d="M 1358,7085 L 1508,7085"/>
 <path fill="none" stroke="rgb(179,179,179)" stroke-linejoin="round" d="M 1358,7085 L 1508,7085"/>
 <path fill="none" stroke="rgb(179,179,179)" stroke-linejoin="round" d="M 1358,6183 L 1508,6183"/>
 <path fill="none" stroke="rgb(179,179,179)" stroke-linejoin="round" d="M 1358,6183 L 1508,6183"/>
 <path fill="none" stroke="rgb(179,179,179)" stroke-linejoin="round" d="M 1358,5282 L 1508,5282"/>
 <path fill="none" stroke="rgb(179,179,179)" stroke-linejoin="round" d="M 1358,5282 L 1508,5282"/>
 <path fill="none" stroke="rgb(179,179,179)" stroke-linejoin="round" d="M 1358,4380 L 1508,4380"/>
 <path fill="none" stroke="rgb(179,179,179)" stroke-linejoin="round" d="M 1358,4380 L 1508,4380"/>
 <path fill="none" stroke="rgb(179,179,179)" stroke-linejoin="round" d="M 1358,3478 L 1508,3478"/>
 <path fill="none" stroke="rgb(179,179,179)" stroke-linejoin="round" d="M 1358,3478 L 1508,3478"/>
 <path fill="none" stroke="rgb(179,179,179)" stroke-linejoin="round" d="M 1358,2577 L 1508,2577"/>
 <path fill="none" stroke="rgb(179,179,179)" stroke-linejoin="round" d="M 1358,2577 L 1508,2577"/>
 <path fill="none" stroke="rgb(179,179,179)" stroke-linejoin="round" d="M 1358,1675 L 1508,1675"/>
 <path fill="none" stroke="rgb(179,179,179)" stroke-linejoin="round" d="M 1358,1675 L 1508,1675"/>
 <path fill="none" stroke="rgb(179,179,179)" stroke-linejoin="round" d="M 1358,773 L 1508,773"/>
 <path fill="none" stroke="rgb(179,179,179)" stroke-linejoin="round" d="M 1358,773 L 1508,773"/>
 <path fill="none" stroke="rgb(179,179,179)" stroke-linejoin="round" d="M 1508,19708 L 1508,774"/>
 <path fill="none" stroke="rgb(49,64,4)" stroke-width="80" stroke-linejoin="round" d="M 1508,947 L 1944,1306 2380,1577 2817,1839 3253,2100 3690,2361 4126,2622 4562,2883 4999,3143 5435,3404 5872,3665 6308,3926 6745,4186 7181,4447 7617,4708 8054,4968 8490,5229 8927,5490 9363,5751 9800,6011 10236,6272 10672,6533 11109,6793 11545,7054 11982,7315 12418,7576 12854,7836 13291,8097 13727,8358 14164,8618 14600,8879 15037,9140 15472,9401 15908,9661 16345,9922 16781,10183 17218,10442 17654,10703 18091,10964 18527,11225 18963,11485 19400,11746 19836,12007 20273,12267 20709,12528 21145,12789 21582,13049 22018,13310 22455,13571 22891,13832 23328,14092 23764,14353 24200,14614 24637,14874 25073,15135 25510,15396 25946,15657 26383,15917 26819,16178 27255,16439 27692,16699 28128,16960 28565,17221 29001,17482 29438,17742"/>
 <path fill="rgb(49,64,4)" stroke="none" d="M 1383,822 L 1383,1072 1633,822 1633,1072 1383,822 Z"/>
 <path fill="none" stroke="rgb(49,64,4)" stroke-linejoin="round" d="M 1383,822 L 1383,1072 1633,822 1633,1072 1383,822 Z"/>
 <path fill="rgb(49,64,4)" stroke="none" d="M 1819,1181 L 1819,1431 2069,1181 2069,1431 1819,1181 Z"/>
 <path fill="none" stroke="rgb(49,64,4)" stroke-linejoin="round" d="M 1819,1181 L 1819,1431 2069,1181 2069,1431 1819,1181 Z"/>
 <path fill="rgb(49,64,4)" stroke="none" d="M 2255,1452 L 2255,1702 2505,1452 2505,1702 2255,1452 Z"/>
 <path fill="none" stroke="rgb(49,64,4)" stroke-linejoin="round" d="M 2255,1452 L 2255,1702 2505,1452 2505,1702 2255,1452 Z"/>
 <path fill="rgb(49,64,4)" stroke="none" d="M 2692,1714 L 2692,1964 2942,1714 2942,1964 2692,1714 Z"/>
 <path fill="none" stroke="rgb(49,64,4)" stroke-linejoin="round" d="M 2692,1714 L 2692,1964 2942,1714 2942,1964 2692,1714 Z"/>
 <path fill="rgb(49,64,4)" stroke="none" d="M 3128,1975 L 3128,2225 3378,1975 3378,2225 3128,1975 Z"/>
 <path fill="none" stroke="rgb(49,64,4)" stroke-linejoin="round" d="M 3128,1975 L 3128,2225 3378,1975 3378,2225 3128,1975 Z"/>
 <path fill="rgb(49,64,4)" stroke="none" d="M 3565,2236 L 3565,2486 3815,2236 3815,2486 3565,2236 Z"/>
 <path fill="none" stroke="rgb(49,64,4)" stroke-linejoin="round" d="M 3565,2236 L 3565,2486 3815,2236 3815,2486 3565,2236 Z"/>
 <path fill="rgb(49,64,4)" stroke="none" d="M 4001,2497 L 4001,2747 4251,2497 4251,2747 4001,2497 Z"/>
 <path fill="none" stroke="rgb(49,64,4)" stroke-linejoin="round" d="M 4001,2497 L 4001,2747 4251,2497 4251,2747 4001,2497 Z"/>
 <path fill="rgb(49,64,4)" stroke="none" d="M 4437,2758 L 4437,3008 4687,2758 4687,3008 4437,2758 Z"/>
 <path fill="none" stroke="rgb(49,64,4)" stroke-linejoin="round" d="M 4437,2758 L 4437,3008 4687,2758 4687,3008 4437,2758 Z"/>
 <path fill="rgb(49,64,4)" stroke="none" d="M 4874,3018 L 4874,3268 5124,3018 5124,3268 4874,3018 Z"/>
 <path fill="none" stroke="rgb(49,64,4)" stroke-linejoin="round" d="M 4874,3018 L 4874,3268 5124,3018 5124,3268 4874,3018 Z"/>
 <path fill="rgb(49,64,4)" stroke="none" d="M 5310,3279 L 5310,3529 5560,3279 5560,3529 5310,3279 Z"/>
 <path fill="none" stroke="rgb(49,64,4)" stroke-linejoin="round" d="M 5310,3279 L 5310,3529 5560,3279 5560,3529 5310,3279 Z"/>
 <path fill="rgb(49,64,4)" stroke="none" d="M 5747,3540 L 5747,3790 5997,3540 5997,3790 5747,3540 Z"/>
 <path fill="none" stroke="rgb(49,64,4)" stroke-linejoin="round" d="M 5747,3540 L 5747,3790 5997,3540 5997,3790 5747,3540 Z"/>
 <path fill="rgb(49,64,4)" stroke="none" d="M 6183,3801 L 6183,4051 6433,3801 6433,4051 6183,3801 Z"/>
 <path fill="none" stroke="rgb(49,64,4)" stroke-linejoin="round" d="M 6183,3801 L 6183,4051 6433,3801 6433,4051 6183,3801 Z"/>
 <path fill="rgb(49,64,4)" stroke="none" d="M 6620,4061 L 6620,4311 6870,4061 6870,4311 6620,4061 Z"/>
 <path fill="none" stroke="rgb(49,64,4)" stroke-linejoin="round" d="M 6620,4061 L 6620,4311 6870,4061 6870,4311 6620,4061 Z"/>
 <path fill="rgb(49,64,4)" stroke="none" d="M 7056,4322 L 7056,4572 7306,4322 7306,4572 7056,4322 Z"/>
 <path fill="none" stroke="rgb(49,64,4)" stroke-linejoin="round" d="M 7056,4322 L 7056,4572 7306,4322 7306,4572 7056,4322 Z"/>
 <path fill="rgb(49,64,4)" stroke="none" d="M 7492,4583 L 7492,4833 7742,4583 7742,4833 7492,4583 Z"/>
 <path fill="none" stroke="rgb(49,64,4)" stroke-linejoin="round" d="M 7492,4583 L 7492,4833 7742,4583 7742,4833 7492,4583 Z"/>
 <path fill="rgb(49,64,4)" stroke="none" d="M 7929,4843 L 7929,5093 8179,4843 8179,5093 7929,4843 Z"/>
 <path fill="none" stroke="rgb(49,64,4)" stroke-linejoin="round" d="M 7929,4843 L 7929,5093 8179,4843 8179,5093 7929,4843 Z"/>
 <path fill="rgb(49,64,4)" stroke="none" d="M 8365,5104 L 8365,5354 8615,5104 8615,5354 8365,5104 Z"/>
 <path fill="none" stroke="rgb(49,64,4)" stroke-linejoin="round" d="M 8365,5104 L 8365,5354 8615,5104 8615,5354 8365,5104 Z"/>
 <path fill="rgb(49,64,4)" stroke="none" d="M 8802,5365 L 8802,5615 9052,5365 9052,5615 8802,5365 Z"/>
 <path fill="none" stroke="rgb(49,64,4)" stroke-linejoin="round" d="M 8802,5365 L 8802,5615 9052,5365 9052,5615 8802,5365 Z"/>
 <path fill="rgb(49,64,4)" stroke="none" d="M 9238,5626 L 9238,5876 9488,5626 9488,5876 9238,5626 Z"/>
 <path fill="none" stroke="rgb(49,64,4)" stroke-linejoin="round" d="M 9238,5626 L 9238,5876 9488,5626 9488,5876 9238,5626 Z"/>
 <path fill="rgb(49,64,4)" stroke="none" d="M 9675,5886 L 9675,6136 9925,5886 9925,6136 9675,5886 Z"/>
 <path fill="none" stroke="rgb(49,64,4)" stroke-linejoin="round" d="M 9675,5886 L 9675,6136 9925,5886 9925,6136 9675,5886 Z"/>
 <path fill="rgb(49,64,4)" stroke="none" d="M 10111,6147 L 10111,6397 10361,6147 10361,6397 10111,6147 Z"/>
 <path fill="none" stroke="rgb(49,64,4)" stroke-linejoin="round" d="M 10111,6147 L 10111,6397 10361,6147 10361,6397 10111,6147 Z"/>
 <path fill="rgb(49,64,4)" stroke="none" d="M 10547,6408 L 10547,6658 10797,6408 10797,6658 10547,6408 Z"/>
 <path fill="none" stroke="rgb(49,64,4)" stroke-linejoin="round" d="M 10547,6408 L 10547,6658 10797,6408 10797,6658 10547,6408 Z"/>
 <path fill="rgb(49,64,4)" stroke="none" d="M 10984,6668 L 10984,6918 11234,6668 11234,6918 10984,6668 Z"/>
 <path fill="none" stroke="rgb(49,64,4)" stroke-linejoin="round" d="M 10984,6668 L 10984,6918 11234,6668 11234,6918 10984,6668 Z"/>
 <path fill="rgb(49,64,4)" stroke="none" d="M 11420,6929 L 11420,7179 11670,6929 11670,7179 11420,6929 Z"/>
 <path fill="none" stroke="rgb(49,64,4)" stroke-linejoin="round" d="M 11420,6929 L 11420,7179 11670,6929 11670,7179 11420,6929 Z"/>
 <path fill="rgb(49,64,4)" stroke="none" d="M 11857,7190 L 11857,7440 12107,7190 12107,7440 11857,7190 Z"/>
 <path fill="none" stroke="rgb(49,64,4)" stroke-linejoin="round" d="M 11857,7190 L 11857,7440 12107,7190 12107,7440 11857,7190 Z"/>
 <path fill="rgb(49,64,4)" stroke="none" d="M 12293,7451 L 12293,7701 12543,7451 12543,7701 12293,7451 Z"/>
 <path fill="none" stroke="rgb(49,64,4)" stroke-linejoin="round" d="M 12293,7451 L 12293,7701 12543,7451 12543,7701 12293,7451 Z"/>
 <path fill="rgb(49,64,4)" stroke="none" d="M 12729,7711 L 12729,7961 12979,7711 12979,7961 12729,7711 Z"/>
 <path fill="none" stroke="rgb(49,64,4)" stroke-linejoin="round" d="M 12729,7711 L 12729,7961 12979,7711 12979,7961 12729,7711 Z"/>
 <path fill="rgb(49,64,4)" stroke="none" d="M 13166,7972 L 13166,8222 13416,7972 13416,8222 13166,7972 Z"/>
 <path fill="none" stroke="rgb(49,64,4)" stroke-linejoin="round" d="M 13166,7972 L 13166,8222 13416,7972 13416,8222 13166,7972 Z"/>
 <path fill="rgb(49,64,4)" stroke="none" d="M 13602,8233 L 13602,8483 13852,8233 13852,8483 13602,8233 Z"/>
 <path fill="none" stroke="rgb(49,64,4)" stroke-linejoin="round" d="M 13602,8233 L 13602,8483 13852,8233 13852,8483 13602,8233 Z"/>
 <path fill="rgb(49,64,4)" stroke="none" d="M 14039,8493 L 14039,8743 14289,8493 14289,8743 14039,8493 Z"/>
 <path fill="none" stroke="rgb(49,64,4)" stroke-linejoin="round" d="M 14039,8493 L 14039,8743 14289,8493 14289,8743 14039,8493 Z"/>
 <path fill="rgb(49,64,4)" stroke="none" d="M 14475,8754 L 14475,9004 14725,8754 14725,9004 14475,8754 Z"/>
 <path fill="none" stroke="rgb(49,64,4)" stroke-linejoin="round" d="M 14475,8754 L 14475,9004 14725,8754 14725,9004 14475,8754 Z"/>
 <path fill="rgb(49,64,4)" stroke="none" d="M 14912,9015 L 14912,9265 15161,9015 15161,9265 14912,9015 Z"/>
 <path fill="none" stroke="rgb(49,64,4)" stroke-linejoin="round" d="M 14912,9015 L 14912,9265 15161,9015 15161,9265 14912,9015 Z"/>
 <path fill="rgb(49,64,4)" stroke="none" d="M 15347,9276 L 15347,9526 15597,9276 15597,9526 15347,9276 Z"/>
 <path fill="none" stroke="rgb(49,64,4)" stroke-linejoin="round" d="M 15347,9276 L 15347,9526 15597,9276 15597,9526 15347,9276 Z"/>
 <path fill="rgb(49,64,4)" stroke="none" d="M 15783,9536 L 15783,9786 16033,9536 16033,9786 15783,9536 Z"/>
 <path fill="none" stroke="rgb(49,64,4)" stroke-linejoin="round" d="M 15783,9536 L 15783,9786 16033,9536 16033,9786 15783,9536 Z"/>
 <path fill="rgb(49,64,4)" stroke="none" d="M 16220,9797 L 16220,10047 16470,9797 16470,10047 16220,9797 Z"/>
 <path fill="none" stroke="rgb(49,64,4)" stroke-linejoin="round" d="M 16220,9797 L 16220,10047 16470,9797 16470,10047 16220,9797 Z"/>
 <path fill="rgb(49,64,4)" stroke="none" d="M 16656,10058 L 16656,10308 16906,10058 16906,10308 16656,10058 Z"/>
 <path fill="none" stroke="rgb(49,64,4)" stroke-linejoin="round" d="M 16656,10058 L 16656,10308 16906,10058 16906,10308 16656,10058 Z"/>
 <path fill="rgb(49,64,4)" stroke="none" d="M 17093,10318 L 17093,10567 17343,10318 17343,10567 17093,10318 Z"/>
 <path fill="none" stroke="rgb(49,64,4)" stroke-linejoin="round" d="M 17093,10318 L 17093,10567 17343,10318 17343,10567 17093,10318 Z"/>
 <path fill="rgb(49,64,4)" stroke="none" d="M 17529,10578 L 17529,10828 17779,10578 17779,10828 17529,10578 Z"/>
 <path fill="none" stroke="rgb(49,64,4)" stroke-linejoin="round" d="M 17529,10578 L 17529,10828 17779,10578 17779,10828 17529,10578 Z"/>
 <path fill="rgb(49,64,4)" stroke="none" d="M 17966,10839 L 17966,11089 18216,10839 18216,11089 17966,10839 Z"/>
 <path fill="none" stroke="rgb(49,64,4)" stroke-linejoin="round" d="M 17966,10839 L 17966,11089 18216,10839 18216,11089 17966,10839 Z"/>
 <path fill="rgb(49,64,4)" stroke="none" d="M 18402,11100 L 18402,11350 18652,11100 18652,11350 18402,11100 Z"/>
 <path fill="none" stroke="rgb(49,64,4)" stroke-linejoin="round" d="M 18402,11100 L 18402,11350 18652,11100 18652,11350 18402,11100 Z"/>
 <path fill="rgb(49,64,4)" stroke="none" d="M 18838,11360 L 18838,11610 19088,11360 19088,11610 18838,11360 Z"/>
 <path fill="none" stroke="rgb(49,64,4)" stroke-linejoin="round" d="M 18838,11360 L 18838,11610 19088,11360 19088,11610 18838,11360 Z"/>
 <path fill="rgb(49,64,4)" stroke="none" d="M 19275,11621 L 19275,11871 19525,11621 19525,11871 19275,11621 Z"/>
 <path fill="none" stroke="rgb(49,64,4)" stroke-linejoin="round" d="M 19275,11621 L 19275,11871 19525,11621 19525,11871 19275,11621 Z"/>
 <path fill="rgb(49,64,4)" stroke="none" d="M 19711,11882 L 19711,12132 19961,11882 19961,12132 19711,11882 Z"/>
 <path fill="none" stroke="rgb(49,64,4)" stroke-linejoin="round" d="M 19711,11882 L 19711,12132 19961,11882 19961,12132 19711,11882 Z"/>
 <path fill="rgb(49,64,4)" stroke="none" d="M 20148,12142 L 20148,12392 20398,12142 20398,12392 20148,12142 Z"/>
 <path fill="none" stroke="rgb(49,64,4)" stroke-linejoin="round" d="M 20148,12142 L 20148,12392 20398,12142 20398,12392 20148,12142 Z"/>
 <path fill="rgb(49,64,4)" stroke="none" d="M 20584,12403 L 20584,12653 20834,12403 20834,12653 20584,12403 Z"/>
 <path fill="none" stroke="rgb(49,64,4)" stroke-linejoin="round" d="M 20584,12403 L 20584,12653 20834,12403 20834,12653 20584,12403 Z"/>
 <path fill="rgb(49,64,4)" stroke="none" d="M 21020,12664 L 21020,12914 21270,12664 21270,12914 21020,12664 Z"/>
 <path fill="none" stroke="rgb(49,64,4)" stroke-linejoin="round" d="M 21020,12664 L 21020,12914 21270,12664 21270,12914 21020,12664 Z"/>
 <path fill="rgb(49,64,4)" stroke="none" d="M 21457,12924 L 21457,13174 21707,12924 21707,13174 21457,12924 Z"/>
 <path fill="none" stroke="rgb(49,64,4)" stroke-linejoin="round" d="M 21457,12924 L 21457,13174 21707,12924 21707,13174 21457,12924 Z"/>
 <path fill="rgb(49,64,4)" stroke="none" d="M 21893,13185 L 21893,13435 22143,13185 22143,13435 21893,13185 Z"/>
 <path fill="none" stroke="rgb(49,64,4)" stroke-linejoin="round" d="M 21893,13185 L 21893,13435 22143,13185 22143,13435 21893,13185 Z"/>
 <path fill="rgb(49,64,4)" stroke="none" d="M 22330,13446 L 22330,13696 22580,13446 22580,13696 22330,13446 Z"/>
 <path fill="none" stroke="rgb(49,64,4)" stroke-linejoin="round" d="M 22330,13446 L 22330,13696 22580,13446 22580,13696 22330,13446 Z"/>
 <path fill="rgb(49,64,4)" stroke="none" d="M 22766,13707 L 22766,13957 23016,13707 23016,13957 22766,13707 Z"/>
 <path fill="none" stroke="rgb(49,64,4)" stroke-linejoin="round" d="M 22766,13707 L 22766,13957 23016,13707 23016,13957 22766,13707 Z"/>
 <path fill="rgb(49,64,4)" stroke="none" d="M 23203,13967 L 23203,14217 23453,13967 23453,14217 23203,13967 Z"/>
 <path fill="none" stroke="rgb(49,64,4)" stroke-linejoin="round" d="M 23203,13967 L 23203,14217 23453,13967 23453,14217 23203,13967 Z"/>
 <path fill="rgb(49,64,4)" stroke="none" d="M 23639,14228 L 23639,14478 23889,14228 23889,14478 23639,14228 Z"/>
 <path fill="none" stroke="rgb(49,64,4)" stroke-linejoin="round" d="M 23639,14228 L 23639,14478 23889,14228 23889,14478 23639,14228 Z"/>
 <path fill="rgb(49,64,4)" stroke="none" d="M 24075,14489 L 24075,14739 24325,14489 24325,14739 24075,14489 Z"/>
 <path fill="none" stroke="rgb(49,64,4)" stroke-linejoin="round" d="M 24075,14489 L 24075,14739 24325,14489 24325,14739 24075,14489 Z"/>
 <path fill="rgb(49,64,4)" stroke="none" d="M 24512,14749 L 24512,14999 24762,14749 24762,14999 24512,14749 Z"/>
 <path fill="none" stroke="rgb(49,64,4)" stroke-linejoin="round" d="M 24512,14749 L 24512,14999 24762,14749 24762,14999 24512,14749 Z"/>
 <path fill="rgb(49,64,4)" stroke="none" d="M 24948,15010 L 24948,15260 25198,15010 25198,15260 24948,15010 Z"/>
 <path fill="none" stroke="rgb(49,64,4)" stroke-linejoin="round" d="M 24948,15010 L 24948,15260 25198,15010 25198,15260 24948,15010 Z"/>
 <path fill="rgb(49,64,4)" stroke="none" d="M 25385,15271 L 25385,15521 25635,15271 25635,15521 25385,15271 Z"/>
 <path fill="none" stroke="rgb(49,64,4)" stroke-linejoin="round" d="M 25385,15271 L 25385,15521 25635,15271 25635,15521 25385,15271 Z"/>
 <path fill="rgb(49,64,4)" stroke="none" d="M 25821,15532 L 25821,15782 26071,15532 26071,15782 25821,15532 Z"/>
 <path fill="none" stroke="rgb(49,64,4)" stroke-linejoin="round" d="M 25821,15532 L 25821,15782 26071,15532 26071,15782 25821,15532 Z"/>
 <path fill="rgb(49,64,4)" stroke="none" d="M 26258,15792 L 26258,16042 26508,15792 26508,16042 26258,15792 Z"/>
 <path fill="none" stroke="rgb(49,64,4)" stroke-linejoin="round" d="M 26258,15792 L 26258,16042 26508,15792 26508,16042 26258,15792 Z"/>
 <path fill="rgb(49,64,4)" stroke="none" d="M 26694,16053 L 26694,16303 26944,16053 26944,16303 26694,16053 Z"/>
 <path fill="none" stroke="rgb(49,64,4)" stroke-linejoin="round" d="M 26694,16053 L 26694,16303 26944,16053 26944,16303 26694,16053 Z"/>
 <path fill="rgb(49,64,4)" stroke="none" d="M 27130,16314 L 27130,16564 27380,16314 27380,16564 27130,16314 Z"/>
 <path fill="none" stroke="rgb(49,64,4)" stroke-linejoin="round" d="M 27130,16314 L 27130,16564 27380,16314 27380,16564 27130,16314 Z"/>
 <path fill="rgb(49,64,4)" stroke="none" d="M 27567,16574 L 27567,16824 27817,16574 27817,16824 27567,16574 Z"/>
 <path fill="none" stroke="rgb(49,64,4)" stroke-linejoin="round" d="M 27567,16574 L 27567,16824 27817,16574 27817,16824 27567,16574 Z"/>
 <path fill="rgb(49,64,4)" stroke="none" d="M 28003,16835 L 28003,17085 28253,16835 28253,17085 28003,16835 Z"/>
 <path fill="none" stroke="rgb(49,64,4)" stroke-linejoin="round" d="M 28003,16835 L 28003,17085 28253,16835 28253,17085 28003,16835 Z"/>
 <path fill="rgb(49,64,4)" stroke="none" d="M 28440,17096 L 28440,17346 28690,17096 28690,17346 28440,17096 Z"/>
 <path fill="none" stroke="rgb(49,64,4)" stroke-linejoin="round" d="M 28440,17096 L 28440,17346 28690,17096 28690,17346 28440,17096 Z"/>
 <path fill="rgb(49,64,4)" stroke="none" d="M 28876,17357 L 28876,17607 29126,17357 29126,17607 28876,17357 Z"/>
 <path fill="none" stroke="rgb(49,64,4)" stroke-linejoin="round" d="M 28876,17357 L 28876,17607 29126,17357 29126,17607 28876,17357 Z"/>
 <path fill="rgb(49,64,4)" stroke="none" d="M 29313,17617 L 29313,17867 29563,17617 29563,17867 29313,17617 Z"/>
 <path fill="none" stroke="rgb(49,64,4)" stroke-linejoin="round" d="M 29313,17617 L 29313,17867 29563,17617 29563,17867 29313,17617 Z"/>
 <path fill="none" stroke="rgb(126,0,33)" stroke-width="80" stroke-linejoin="round" d="M 1508,947 L 1944,1230 2380,1415 2817,1595 3253,1773 3690,1951 4126,2130 4562,2308 4999,2486 5435,2665 5872,2843 6308,3021 6745,3199 7181,3378 7617,3556 8054,3734 8490,3912 8927,4091 9363,4269 9800,4447 10236,4626 10672,4804 11109,4982 11545,5160 11982,5339 12418,5517 12854,5695 13291,5873 13727,6052 14164,6230 14600,6408 15037,6587 15472,6765 15908,6943 16345,7121 16781,7300 17218,7478 17654,7656 18091,7834 18527,8013 18963,8191 19400,8369 19836,8548 20273,8726 20709,8904 21145,9082 21582,9261 22018,9439 22455,9617 22891,9795 23328,9974 23764,10152 24200,10330 24637,10507 25073,10686 25510,10864 25946,11042 26383,11221 26819,11399 27255,11577 27692,11755 28128,11934 28565,12112 29001,12290 29438,12468"/>
 <path fill="rgb(126,0,33)" stroke="none" d="M 1383,822 L 1383,1072 1633,947 1383,822 Z"/>
 <path fill="none" stroke="rgb(126,0,33)" stroke-linejoin="round" d="M 1383,822 L 1383,1072 1633,947 1383,822 Z"/>
 <path fill="rgb(126,0,33)" stroke="none" d="M 1819,1105 L 1819,1355 2069,1230 1819,1105 Z"/>
 <path fill="none" stroke="rgb(126,0,33)" stroke-linejoin="round" d="M 1819,1105 L 1819,1355 2069,1230 1819,1105 Z"/>
 <path fill="rgb(126,0,33)" stroke="none" d="M 2255,1290 L 2255,1540 2505,1415 2255,1290 Z"/>
 <path fill="none" stroke="rgb(126,0,33)" stroke-linejoin="round" d="M 2255,1290 L 2255,1540 2505,1415 2255,1290 Z"/>
 <path fill="rgb(126,0,33)" stroke="none" d="M 2692,1470 L 2692,1720 2942,1595 2692,1470 Z"/>
 <path fill="none" stroke="rgb(126,0,33)" stroke-linejoin="round" d="M 2692,1470 L 2692,1720 2942,1595 2692,1470 Z"/>
 <path fill="rgb(126,0,33)" stroke="none" d="M 3128,1648 L 3128,1898 3378,1773 3128,1648 Z"/>
 <path fill="none" stroke="rgb(126,0,33)" stroke-linejoin="round" d="M 3128,1648 L 3128,1898 3378,1773 3128,1648 Z"/>
 <path fill="rgb(126,0,33)" stroke="none" d="M 3565,1826 L 3565,2076 3815,1951 3565,1826 Z"/>
 <path fill="none" stroke="rgb(126,0,33)" stroke-linejoin="round" d="M 3565,1826 L 3565,2076 3815,1951 3565,1826 Z"/>
 <path fill="rgb(126,0,33)" stroke="none" d="M 4001,2005 L 4001,2255 4251,2130 4001,2005 Z"/>
 <path fill="none" stroke="rgb(126,0,33)" stroke-linejoin="round" d="M 4001,2005 L 4001,2255 4251,2130 4001,2005 Z"/>
 <path fill="rgb(126,0,33)" stroke="none" d="M 4437,2183 L 4437,2433 4687,2308 4437,2183 Z"/>
 <path fill="none" stroke="rgb(126,0,33)" stroke-linejoin="round" d="M 4437,2183 L 4437,2433 4687,2308 4437,2183 Z"/>
 <path fill="rgb(126,0,33)" stroke="none" d="M 4874,2361 L 4874,2611 5124,2486 4874,2361 Z"/>
 <path fill="none" stroke="rgb(126,0,33)" stroke-linejoin="round" d="M 4874,2361 L 4874,2611 5124,2486 4874,2361 Z"/>
 <path fill="rgb(126,0,33)" stroke="none" d="M 5310,2540 L 5310,2790 5560,2665 5310,2540 Z"/>
 <path fill="none" stroke="rgb(126,0,33)" stroke-linejoin="round" d="M 5310,2540 L 5310,2790 5560,2665 5310,2540 Z"/>
 <path fill="rgb(126,0,33)" stroke="none" d="M 5747,2718 L 5747,2968 5997,2843 5747,2718 Z"/>
 <path fill="none" stroke="rgb(126,0,33)" stroke-linejoin="round" d="M 5747,2718 L 5747,2968 5997,2843 5747,2718 Z"/>
 <path fill="rgb(126,0,33)" stroke="none" d="M 6183,2896 L 6183,3146 6433,3021 6183,2896 Z"/>
 <path fill="none" stroke="rgb(126,0,33)" stroke-linejoin="round" d="M 6183,2896 L 6183,3146 6433,3021 6183,2896 Z"/>
 <path fill="rgb(126,0,33)" stroke="none" d="M 6620,3074 L 6620,3324 6870,3199 6620,3074 Z"/>
 <path fill="none" stroke="rgb(126,0,33)" stroke-linejoin="round" d="M 6620,3074 L 6620,3324 6870,3199 6620,3074 Z"/>
 <path fill="rgb(126,0,33)" stroke="none" d="M 7056,3253 L 7056,3503 7306,3378 7056,3253 Z"/>
 <path fill="none" stroke="rgb(126,0,33)" stroke-linejoin="round" d="M 7056,3253 L 7056,3503 7306,3378 7056,3253 Z"/>
 <path fill="rgb(126,0,33)" stroke="none" d="M 7492,3431 L 7492,3681 7742,3556 7492,3431 Z"/>
 <path fill="none" stroke="rgb(126,0,33)" stroke-linejoin="round" d="M 7492,3431 L 7492,3681 7742,3556 7492,3431 Z"/>
 <path fill="rgb(126,0,33)" stroke="none" d="M 7929,3609 L 7929,3859 8179,3734 7929,3609 Z"/>
 <path fill="none" stroke="rgb(126,0,33)" stroke-linejoin="round" d="M 7929,3609 L 7929,3859 8179,3734 7929,3609 Z"/>
 <path fill="rgb(126,0,33)" stroke="none" d="M 8365,3787 L 8365,4037 8615,3912 8365,3787 Z"/>
 <path fill="none" stroke="rgb(126,0,33)" stroke-linejoin="round" d="M 8365,3787 L 8365,4037 8615,3912 8365,3787 Z"/>
 <path fill="rgb(126,0,33)" stroke="none" d="M 8802,3966 L 8802,4216 9052,4091 8802,3966 Z"/>
 <path fill="none" stroke="rgb(126,0,33)" stroke-linejoin="round" d="M 8802,3966 L 8802,4216 9052,4091 8802,3966 Z"/>
 <path fill="rgb(126,0,33)" stroke="none" d="M 9238,4144 L 9238,4394 9488,4269 9238,4144 Z"/>
 <path fill="none" stroke="rgb(126,0,33)" stroke-linejoin="round" d="M 9238,4144 L 9238,4394 9488,4269 9238,4144 Z"/>
 <path fill="rgb(126,0,33)" stroke="none" d="M 9675,4322 L 9675,4572 9925,4447 9675,4322 Z"/>
 <path fill="none" stroke="rgb(126,0,33)" stroke-linejoin="round" d="M 9675,4322 L 9675,4572 9925,4447 9675,4322 Z"/>
 <path fill="rgb(126,0,33)" stroke="none" d="M 10111,4501 L 10111,4751 10361,4626 10111,4501 Z"/>
 <path fill="none" stroke="rgb(126,0,33)" stroke-linejoin="round" d="M 10111,4501 L 10111,4751 10361,4626 10111,4501 Z"/>
 <path fill="rgb(126,0,33)" stroke="none" d="M 10547,4679 L 10547,4929 10797,4804 10547,4679 Z"/>
 <path fill="none" stroke="rgb(126,0,33)" stroke-linejoin="round" d="M 10547,4679 L 10547,4929 10797,4804 10547,4679 Z"/>
 <path fill="rgb(126,0,33)" stroke="none" d="M 10984,4857 L 10984,5107 11234,4982 10984,4857 Z"/>
 <path fill="none" stroke="rgb(126,0,33)" stroke-linejoin="round" d="M 10984,4857 L 10984,5107 11234,4982 10984,4857 Z"/>
 <path fill="rgb(126,0,33)" stroke="none" d="M 11420,5035 L 11420,5285 11670,5160 11420,5035 Z"/>
 <path fill="none" stroke="rgb(126,0,33)" stroke-linejoin="round" d="M 11420,5035 L 11420,5285 11670,5160 11420,5035 Z"/>
 <path fill="rgb(126,0,33)" stroke="none" d="M 11857,5214 L 11857,5464 12107,5339 11857,5214 Z"/>
 <path fill="none" stroke="rgb(126,0,33)" stroke-linejoin="round" d="M 11857,5214 L 11857,5464 12107,5339 11857,5214 Z"/>
 <path fill="rgb(126,0,33)" stroke="none" d="M 12293,5392 L 12293,5642 12543,5517 12293,5392 Z"/>
 <path fill="none" stroke="rgb(126,0,33)" stroke-linejoin="round" d="M 12293,5392 L 12293,5642 12543,5517 12293,5392 Z"/>
 <path fill="rgb(126,0,33)" stroke="none" d="M 12729,5570 L 12729,5820 12979,5695 12729,5570 Z"/>
 <path fill="none" stroke="rgb(126,0,33)" stroke-linejoin="round" d="M 12729,5570 L 12729,5820 12979,5695 12729,5570 Z"/>
 <path fill="rgb(126,0,33)" stroke="none" d="M 13166,5748 L 13166,5998 13416,5873 13166,5748 Z"/>
 <path fill="none" stroke="rgb(126,0,33)" stroke-linejoin="round" d="M 13166,5748 L 13166,5998 13416,5873 13166,5748 Z"/>
 <path fill="rgb(126,0,33)" stroke="none" d="M 13602,5927 L 13602,6177 13852,6052 13602,5927 Z"/>
 <path fill="none" stroke="rgb(126,0,33)" stroke-linejoin="round" d="M 13602,5927 L 13602,6177 13852,6052 13602,5927 Z"/>
 <path fill="rgb(126,0,33)" stroke="none" d="M 14039,6105 L 14039,6355 14289,6230 14039,6105 Z"/>
 <path fill="none" stroke="rgb(126,0,33)" stroke-linejoin="round" d="M 14039,6105 L 14039,6355 14289,6230 14039,6105 Z"/>
 <path fill="rgb(126,0,33)" stroke="none" d="M 14475,6283 L 14475,6533 14725,6408 14475,6283 Z"/>
 <path fill="none" stroke="rgb(126,0,33)" stroke-linejoin="round" d="M 14475,6283 L 14475,6533 14725,6408 14475,6283 Z"/>
 <path fill="rgb(126,0,33)" stroke="none" d="M 14912,6462 L 14912,6712 15161,6587 14912,6462 Z"/>
 <path fill="none" stroke="rgb(126,0,33)" stroke-linejoin="round" d="M 14912,6462 L 14912,6712 15161,6587 14912,6462 Z"/>
 <path fill="rgb(126,0,33)" stroke="none" d="M 15347,6640 L 15347,6890 15597,6765 15347,6640 Z"/>
 <path fill="none" stroke="rgb(126,0,33)" stroke-linejoin="round" d="M 15347,6640 L 15347,6890 15597,6765 15347,6640 Z"/>
 <path fill="rgb(126,0,33)" stroke="none" d="M 15783,6818 L 15783,7068 16033,6943 15783,6818 Z"/>
 <path fill="none" stroke="rgb(126,0,33)" stroke-linejoin="round" d="M 15783,6818 L 15783,7068 16033,6943 15783,6818 Z"/>
 <path fill="rgb(126,0,33)" stroke="none" d="M 16220,6996 L 16220,7246 16470,7121 16220,6996 Z"/>
 <path fill="none" stroke="rgb(126,0,33)" stroke-linejoin="round" d="M 16220,6996 L 16220,7246 16470,7121 16220,6996 Z"/>
 <path fill="rgb(126,0,33)" stroke="none" d="M 16656,7175 L 16656,7425 16906,7300 16656,7175 Z"/>
 <path fill="none" stroke="rgb(126,0,33)" stroke-linejoin="round" d="M 16656,7175 L 16656,7425 16906,7300 16656,7175 Z"/>
 <path fill="rgb(126,0,33)" stroke="none" d="M 17093,7353 L 17093,7603 17343,7478 17093,7353 Z"/>
 <path fill="none" stroke="rgb(126,0,33)" stroke-linejoin="round" d="M 17093,7353 L 17093,7603 17343,7478 17093,7353 Z"/>
 <path fill="rgb(126,0,33)" stroke="none" d="M 17529,7531 L 17529,7781 17779,7656 17529,7531 Z"/>
 <path fill="none" stroke="rgb(126,0,33)" stroke-linejoin="round" d="M 17529,7531 L 17529,7781 17779,7656 17529,7531 Z"/>
 <path fill="rgb(126,0,33)" stroke="none" d="M 17966,7709 L 17966,7959 18216,7834 17966,7709 Z"/>
 <path fill="none" stroke="rgb(126,0,33)" stroke-linejoin="round" d="M 17966,7709 L 17966,7959 18216,7834 17966,7709 Z"/>
 <path fill="rgb(126,0,33)" stroke="none" d="M 18402,7888 L 18402,8138 18652,8013 18402,7888 Z"/>
 <path fill="none" stroke="rgb(126,0,33)" stroke-linejoin="round" d="M 18402,7888 L 18402,8138 18652,8013 18402,7888 Z"/>
 <path fill="rgb(126,0,33)" stroke="none" d="M 18838,8066 L 18838,8316 19088,8191 18838,8066 Z"/>
 <path fill="none" stroke="rgb(126,0,33)" stroke-linejoin="round" d="M 18838,8066 L 18838,8316 19088,8191 18838,8066 Z"/>
 <path fill="rgb(126,0,33)" stroke="none" d="M 19275,8244 L 19275,8494 19525,8369 19275,8244 Z"/>
 <path fill="none" stroke="rgb(126,0,33)" stroke-linejoin="round" d="M 19275,8244 L 19275,8494 19525,8369 19275,8244 Z"/>
 <path fill="rgb(126,0,33)" stroke="none" d="M 19711,8423 L 19711,8673 19961,8548 19711,8423 Z"/>
 <path fill="none" stroke="rgb(126,0,33)" stroke-linejoin="round" d="M 19711,8423 L 19711,8673 19961,8548 19711,8423 Z"/>
 <path fill="rgb(126,0,33)" stroke="none" d="M 20148,8601 L 20148,8851 20398,8726 20148,8601 Z"/>
 <path fill="none" stroke="rgb(126,0,33)" stroke-linejoin="round" d="M 20148,8601 L 20148,8851 20398,8726 20148,8601 Z"/>
 <path fill="rgb(126,0,33)" stroke="none" d="M 20584,8779 L 20584,9029 20834,8904 20584,8779 Z"/>
 <path fill="none" stroke="rgb(126,0,33)" stroke-linejoin="round" d="M 20584,8779 L 20584,9029 20834,8904 20584,8779 Z"/>
 <path fill="rgb(126,0,33)" stroke="none" d="M 21020,8957 L 21020,9207 21270,9082 21020,8957 Z"/>
 <path fill="none" stroke="rgb(126,0,33)" stroke-linejoin="round" d="M 21020,8957 L 21020,9207 21270,9082 21020,8957 Z"/>
 <path fill="rgb(126,0,33)" stroke="none" d="M 21457,9136 L 21457,9386 21707,9261 21457,9136 Z"/>
 <path fill="none" stroke="rgb(126,0,33)" stroke-linejoin="round" d="M 21457,9136 L 21457,9386 21707,9261 21457,9136 Z"/>
 <path fill="rgb(126,0,33)" stroke="none" d="M 21893,9314 L 21893,9564 22143,9439 21893,9314 Z"/>
 <path fill="none" stroke="rgb(126,0,33)" stroke-linejoin="round" d="M 21893,9314 L 21893,9564 22143,9439 21893,9314 Z"/>
 <path fill="rgb(126,0,33)" stroke="none" d="M 22330,9492 L 22330,9742 22580,9617 22330,9492 Z"/>
 <path fill="none" stroke="rgb(126,0,33)" stroke-linejoin="round" d="M 22330,9492 L 22330,9742 22580,9617 22330,9492 Z"/>
 <path fill="rgb(126,0,33)" stroke="none" d="M 22766,9670 L 22766,9920 23016,9795 22766,9670 Z"/>
 <path fill="none" stroke="rgb(126,0,33)" stroke-linejoin="round" d="M 22766,9670 L 22766,9920 23016,9795 22766,9670 Z"/>
 <path fill="rgb(126,0,33)" stroke="none" d="M 23203,9849 L 23203,10099 23453,9974 23203,9849 Z"/>
 <path fill="none" stroke="rgb(126,0,33)" stroke-linejoin="round" d="M 23203,9849 L 23203,10099 23453,9974 23203,9849 Z"/>
 <path fill="rgb(126,0,33)" stroke="none" d="M 23639,10027 L 23639,10277 23889,10152 23639,10027 Z"/>
 <path fill="none" stroke="rgb(126,0,33)" stroke-linejoin="round" d="M 23639,10027 L 23639,10277 23889,10152 23639,10027 Z"/>
 <path fill="rgb(126,0,33)" stroke="none" d="M 24075,10205 L 24075,10454 24325,10330 24075,10205 Z"/>
 <path fill="none" stroke="rgb(126,0,33)" stroke-linejoin="round" d="M 24075,10205 L 24075,10454 24325,10330 24075,10205 Z"/>
 <path fill="rgb(126,0,33)" stroke="none" d="M 24512,10382 L 24512,10632 24762,10507 24512,10382 Z"/>
 <path fill="none" stroke="rgb(126,0,33)" stroke-linejoin="round" d="M 24512,10382 L 24512,10632 24762,10507 24512,10382 Z"/>
 <path fill="rgb(126,0,33)" stroke="none" d="M 24948,10561 L 24948,10811 25198,10686 24948,10561 Z"/>
 <path fill="none" stroke="rgb(126,0,33)" stroke-linejoin="round" d="M 24948,10561 L 24948,10811 25198,10686 24948,10561 Z"/>
 <path fill="rgb(126,0,33)" stroke="none" d="M 25385,10739 L 25385,10989 25635,10864 25385,10739 Z"/>
 <path fill="none" stroke="rgb(126,0,33)" stroke-linejoin="round" d="M 25385,10739 L 25385,10989 25635,10864 25385,10739 Z"/>
 <path fill="rgb(126,0,33)" stroke="none" d="M 25821,10917 L 25821,11167 26071,11042 25821,10917 Z"/>
 <path fill="none" stroke="rgb(126,0,33)" stroke-linejoin="round" d="M 25821,10917 L 25821,11167 26071,11042 25821,10917 Z"/>
 <path fill="rgb(126,0,33)" stroke="none" d="M 26258,11096 L 26258,11346 26508,11221 26258,11096 Z"/>
 <path fill="none" stroke="rgb(126,0,33)" stroke-linejoin="round" d="M 26258,11096 L 26258,11346 26508,11221 26258,11096 Z"/>
 <path fill="rgb(126,0,33)" stroke="none" d="M 26694,11274 L 26694,11524 26944,11399 26694,11274 Z"/>
 <path fill="none" stroke="rgb(126,0,33)" stroke-linejoin="round" d="M 26694,11274 L 26694,11524 26944,11399 26694,11274 Z"/>
 <path fill="rgb(126,0,33)" stroke="none" d="M 27130,11452 L 27130,11702 27380,11577 27130,11452 Z"/>
 <path fill="none" stroke="rgb(126,0,33)" stroke-linejoin="round" d="M 27130,11452 L 27130,11702 27380,11577 27130,11452 Z"/>
 <path fill="rgb(126,0,33)" stroke="none" d="M 27567,11630 L 27567,11880 27817,11755 27567,11630 Z"/>
 <path fill="none" stroke="rgb(126,0,33)" stroke-linejoin="round" d="M 27567,11630 L 27567,11880 27817,11755 27567,11630 Z"/>
 <path fill="rgb(126,0,33)" stroke="none" d="M 28003,11809 L 28003,12059 28253,11934 28003,11809 Z"/>
 <path fill="none" stroke="rgb(126,0,33)" stroke-linejoin="round" d="M 28003,11809 L 28003,12059 28253,11934 28003,11809 Z"/>
 <path fill="rgb(126,0,33)" stroke="none" d="M 28440,11987 L 28440,12237 28690,12112 28440,11987 Z"/>
 <path fill="none" stroke="rgb(126,0,33)" stroke-linejoin="round" d="M 28440,11987 L 28440,12237 28690,12112 28440,11987 Z"/>
 <path fill="rgb(126,0,33)" stroke="none" d="M 28876,12165 L 28876,12415 29126,12290 28876,12165 Z"/>
 <path fill="none" stroke="rgb(126,0,33)" stroke-linejoin="round" d="M 28876,12165 L 28876,12415 29126,12290 28876,12165 Z"/>
 <path fill="rgb(126,0,33)" stroke="none" d="M 29313,12343 L 29313,12593 29563,12468 29313,12343 Z"/>
 <path fill="none" stroke="rgb(126,0,33)" stroke-linejoin="round" d="M 29313,12343 L 29313,12593 29563,12468 29313,12343 Z"/>
 <path fill="none" stroke="rgb(87,157,28)" stroke-width="80" stroke-linejoin="round" d="M 1508,947 L 1944,1309 2380,1582 2817,1847 3253,2111 3690,2375 4126,2639 4562,2903 4999,3167 5435,3431 5872,3695 6308,3958 6745,4222 7181,4486 7617,4750 8054,5014 8490,5278 8927,5541 9363,5805 9800,6069 10236,6333 10672,6597 11109,6861 11545,7124 11982,7388 12418,7652 12854,7916 13291,8180 13727,8444 14164,8708 14600,8971 15037,9235 15472,9499 15908,9763 16345,10027 16781,10291 17218,10553 17654,10817 18091,11081 18527,11345 18963,11609 19400,11873 19836,12137 20273,12400 20709,12664 21145,12928 21582,13192 22018,13456 22455,13720 22891,13983 23328,14247 23764,14511 24200,14775 24637,15039 25073,15303 25510,15567 25946,15830 26383,16094 26819,16358 27255,16622 27692,16886 28128,17150 28565,17413 29001,17677 29438,17941"/>
 <path fill="rgb(87,157,28)" stroke="none" d="M 1383,1072 L 1633,1072 1508,822 1383,1072 Z"/>
 <path fill="none" stroke="rgb(87,157,28)" stroke-linejoin="round" d="M 1383,1072 L 1633,1072 1508,822 1383,1072 Z"/>
 <path fill="rgb(87,157,28)" stroke="none" d="M 1819,1434 L 2069,1434 1944,1184 1819,1434 Z"/>
 <path fill="none" stroke="rgb(87,157,28)" stroke-linejoin="round" d="M 1819,1434 L 2069,1434 1944,1184 1819,1434 Z"/>
 <path fill="rgb(87,157,28)" stroke="none" d="M 2255,1707 L 2505,1707 2380,1457 2255,1707 Z"/>
 <path fill="none" stroke="rgb(87,157,28)" stroke-linejoin="round" d="M 2255,1707 L 2505,1707 2380,1457 2255,1707 Z"/>
 <path fill="rgb(87,157,28)" stroke="none" d="M 2692,1972 L 2942,1972 2817,1722 2692,1972 Z"/>
 <path fill="none" stroke="rgb(87,157,28)" stroke-linejoin="round" d="M 2692,1972 L 2942,1972 2817,1722 2692,1972 Z"/>
 <path fill="rgb(87,157,28)" stroke="none" d="M 3128,2236 L 3378,2236 3253,1986 3128,2236 Z"/>
 <path fill="none" stroke="rgb(87,157,28)" stroke-linejoin="round" d="M 3128,2236 L 3378,2236 3253,1986 3128,2236 Z"/>
 <path fill="rgb(87,157,28)" stroke="none" d="M 3565,2500 L 3815,2500 3690,2250 3565,2500 Z"/>
 <path fill="none" stroke="rgb(87,157,28)" stroke-linejoin="round" d="M 3565,2500 L 3815,2500 3690,2250 3565,2500 Z"/>
 <path fill="rgb(87,157,28)" stroke="none" d="M 4001,2764 L 4251,2764 4126,2514 4001,2764 Z"/>
 <path fill="none" stroke="rgb(87,157,28)" stroke-linejoin="round" d="M 4001,2764 L 4251,2764 4126,2514 4001,2764 Z"/>
 <path fill="rgb(87,157,28)" stroke="none" d="M 4437,3028 L 4687,3028 4562,2778 4437,3028 Z"/>
 <path fill="none" stroke="rgb(87,157,28)" stroke-linejoin="round" d="M 4437,3028 L 4687,3028 4562,2778 4437,3028 Z"/>
 <path fill="rgb(87,157,28)" stroke="none" d="M 4874,3292 L 5124,3292 4999,3042 4874,3292 Z"/>
 <path fill="none" stroke="rgb(87,157,28)" stroke-linejoin="round" d="M 4874,3292 L 5124,3292 4999,3042 4874,3292 Z"/>
 <path fill="rgb(87,157,28)" stroke="none" d="M 5310,3556 L 5560,3556 5435,3306 5310,3556 Z"/>
 <path fill="none" stroke="rgb(87,157,28)" stroke-linejoin="round" d="M 5310,3556 L 5560,3556 5435,3306 5310,3556 Z"/>
 <path fill="rgb(87,157,28)" stroke="none" d="M 5747,3820 L 5997,3820 5872,3570 5747,3820 Z"/>
 <path fill="none" stroke="rgb(87,157,28)" stroke-linejoin="round" d="M 5747,3820 L 5997,3820 5872,3570 5747,3820 Z"/>
 <path fill="rgb(87,157,28)" stroke="none" d="M 6183,4083 L 6433,4083 6308,3833 6183,4083 Z"/>
 <path fill="none" stroke="rgb(87,157,28)" stroke-linejoin="round" d="M 6183,4083 L 6433,4083 6308,3833 6183,4083 Z"/>
 <path fill="rgb(87,157,28)" stroke="none" d="M 6620,4347 L 6870,4347 6745,4097 6620,4347 Z"/>
 <path fill="none" stroke="rgb(87,157,28)" stroke-linejoin="round" d="M 6620,4347 L 6870,4347 6745,4097 6620,4347 Z"/>
 <path fill="rgb(87,157,28)" stroke="none" d="M 7056,4611 L 7306,4611 7181,4361 7056,4611 Z"/>
 <path fill="none" stroke="rgb(87,157,28)" stroke-linejoin="round" d="M 7056,4611 L 7306,4611 7181,4361 7056,4611 Z"/>
 <path fill="rgb(87,157,28)" stroke="none" d="M 7492,4875 L 7742,4875 7617,4625 7492,4875 Z"/>
 <path fill="none" stroke="rgb(87,157,28)" stroke-linejoin="round" d="M 7492,4875 L 7742,4875 7617,4625 7492,4875 Z"/>
 <path fill="rgb(87,157,28)" stroke="none" d="M 7929,5139 L 8179,5139 8054,4889 7929,5139 Z"/>
 <path fill="none" stroke="rgb(87,157,28)" stroke-linejoin="round" d="M 7929,5139 L 8179,5139 8054,4889 7929,5139 Z"/>
 <path fill="rgb(87,157,28)" stroke="none" d="M 8365,5403 L 8615,5403 8490,5153 8365,5403 Z"/>
 <path fill="none" stroke="rgb(87,157,28)" stroke-linejoin="round" d="M 8365,5403 L 8615,5403 8490,5153 8365,5403 Z"/>
 <path fill="rgb(87,157,28)" stroke="none" d="M 8802,5666 L 9052,5666 8927,5416 8802,5666 Z"/>
 <path fill="none" stroke="rgb(87,157,28)" stroke-linejoin="round" d="M 8802,5666 L 9052,5666 8927,5416 8802,5666 Z"/>
 <path fill="rgb(87,157,28)" stroke="none" d="M 9238,5930 L 9488,5930 9363,5680 9238,5930 Z"/>
 <path fill="none" stroke="rgb(87,157,28)" stroke-linejoin="round" d="M 9238,5930 L 9488,5930 9363,5680 9238,5930 Z"/>
 <path fill="rgb(87,157,28)" stroke="none" d="M 9675,6194 L 9925,6194 9800,5944 9675,6194 Z"/>
 <path fill="none" stroke="rgb(87,157,28)" stroke-linejoin="round" d="M 9675,6194 L 9925,6194 9800,5944 9675,6194 Z"/>
 <path fill="rgb(87,157,28)" stroke="none" d="M 10111,6458 L 10361,6458 10236,6208 10111,6458 Z"/>
 <path fill="none" stroke="rgb(87,157,28)" stroke-linejoin="round" d="M 10111,6458 L 10361,6458 10236,6208 10111,6458 Z"/>
 <path fill="rgb(87,157,28)" stroke="none" d="M 10547,6722 L 10797,6722 10672,6472 10547,6722 Z"/>
 <path fill="none" stroke="rgb(87,157,28)" stroke-linejoin="round" d="M 10547,6722 L 10797,6722 10672,6472 10547,6722 Z"/>
 <path fill="rgb(87,157,28)" stroke="none" d="M 10984,6986 L 11234,6986 11109,6736 10984,6986 Z"/>
 <path fill="none" stroke="rgb(87,157,28)" stroke-linejoin="round" d="M 10984,6986 L 11234,6986 11109,6736 10984,6986 Z"/>
 <path fill="rgb(87,157,28)" stroke="none" d="M 11420,7249 L 11670,7249 11545,6999 11420,7249 Z"/>
 <path fill="none" stroke="rgb(87,157,28)" stroke-linejoin="round" d="M 11420,7249 L 11670,7249 11545,6999 11420,7249 Z"/>
 <path fill="rgb(87,157,28)" stroke="none" d="M 11857,7513 L 12107,7513 11982,7263 11857,7513 Z"/>
 <path fill="none" stroke="rgb(87,157,28)" stroke-linejoin="round" d="M 11857,7513 L 12107,7513 11982,7263 11857,7513 Z"/>
 <path fill="rgb(87,157,28)" stroke="none" d="M 12293,7777 L 12543,7777 12418,7527 12293,7777 Z"/>
 <path fill="none" stroke="rgb(87,157,28)" stroke-linejoin="round" d="M 12293,7777 L 12543,7777 12418,7527 12293,7777 Z"/>
 <path fill="rgb(87,157,28)" stroke="none" d="M 12729,8041 L 12979,8041 12854,7791 12729,8041 Z"/>
 <path fill="none" stroke="rgb(87,157,28)" stroke-linejoin="round" d="M 12729,8041 L 12979,8041 12854,7791 12729,8041 Z"/>
 <path fill="rgb(87,157,28)" stroke="none" d="M 13166,8305 L 13416,8305 13291,8055 13166,8305 Z"/>
 <path fill="none" stroke="rgb(87,157,28)" stroke-linejoin="round" d="M 13166,8305 L 13416,8305 13291,8055 13166,8305 Z"/>
 <path fill="rgb(87,157,28)" stroke="none" d="M 13602,8569 L 13852,8569 13727,8319 13602,8569 Z"/>
 <path fill="none" stroke="rgb(87,157,28)" stroke-linejoin="round" d="M 13602,8569 L 13852,8569 13727,8319 13602,8569 Z"/>
 <path fill="rgb(87,157,28)" stroke="none" d="M 14039,8833 L 14289,8833 14164,8583 14039,8833 Z"/>
 <path fill="none" stroke="rgb(87,157,28)" stroke-linejoin="round" d="M 14039,8833 L 14289,8833 14164,8583 14039,8833 Z"/>
 <path fill="rgb(87,157,28)" stroke="none" d="M 14475,9096 L 14725,9096 14600,8846 14475,9096 Z"/>
 <path fill="none" stroke="rgb(87,157,28)" stroke-linejoin="round" d="M 14475,9096 L 14725,9096 14600,8846 14475,9096 Z"/>
 <path fill="rgb(87,157,28)" stroke="none" d="M 14912,9360 L 15161,9360 15037,9110 14912,9360 Z"/>
 <path fill="none" stroke="rgb(87,157,28)" stroke-linejoin="round" d="M 14912,9360 L 15161,9360 15037,9110 14912,9360 Z"/>
 <path fill="rgb(87,157,28)" stroke="none" d="M 15347,9624 L 15597,9624 15472,9374 15347,9624 Z"/>
 <path fill="none" stroke="rgb(87,157,28)" stroke-linejoin="round" d="M 15347,9624 L 15597,9624 15472,9374 15347,9624 Z"/>
 <path fill="rgb(87,157,28)" stroke="none" d="M 15783,9888 L 16033,9888 15908,9638 15783,9888 Z"/>
 <path fill="none" stroke="rgb(87,157,28)" stroke-linejoin="round" d="M 15783,9888 L 16033,9888 15908,9638 15783,9888 Z"/>
 <path fill="rgb(87,157,28)" stroke="none" d="M 16220,10152 L 16470,10152 16345,9902 16220,10152 Z"/>
 <path fill="none" stroke="rgb(87,157,28)" stroke-linejoin="round" d="M 16220,10152 L 16470,10152 16345,9902 16220,10152 Z"/>
 <path fill="rgb(87,157,28)" stroke="none" d="M 16656,10415 L 16906,10415 16781,10166 16656,10415 Z"/>
 <path fill="none" stroke="rgb(87,157,28)" stroke-linejoin="round" d="M 16656,10415 L 16906,10415 16781,10166 16656,10415 Z"/>
 <path fill="rgb(87,157,28)" stroke="none" d="M 17093,10678 L 17343,10678 17218,10428 17093,10678 Z"/>
 <path fill="none" stroke="rgb(87,157,28)" stroke-linejoin="round" d="M 17093,10678 L 17343,10678 17218,10428 17093,10678 Z"/>
 <path fill="rgb(87,157,28)" stroke="none" d="M 17529,10942 L 17779,10942 17654,10692 17529,10942 Z"/>
 <path fill="none" stroke="rgb(87,157,28)" stroke-linejoin="round" d="M 17529,10942 L 17779,10942 17654,10692 17529,10942 Z"/>
 <path fill="rgb(87,157,28)" stroke="none" d="M 17966,11206 L 18216,11206 18091,10956 17966,11206 Z"/>
 <path fill="none" stroke="rgb(87,157,28)" stroke-linejoin="round" d="M 17966,11206 L 18216,11206 18091,10956 17966,11206 Z"/>
 <path fill="rgb(87,157,28)" stroke="none" d="M 18402,11470 L 18652,11470 18527,11220 18402,11470 Z"/>
 <path fill="none" stroke="rgb(87,157,28)" stroke-linejoin="round" d="M 18402,11470 L 18652,11470 18527,11220 18402,11470 Z"/>
 <path fill="rgb(87,157,28)" stroke="none" d="M 18838,11734 L 19088,11734 18963,11484 18838,11734 Z"/>
 <path fill="none" stroke="rgb(87,157,28)" stroke-linejoin="round" d="M 18838,11734 L 19088,11734 18963,11484 18838,11734 Z"/>
 <path fill="rgb(87,157,28)" stroke="none" d="M 19275,11998 L 19525,11998 19400,11748 19275,11998 Z"/>
 <path fill="none" stroke="rgb(87,157,28)" stroke-linejoin="round" d="M 19275,11998 L 19525,11998 19400,11748 19275,11998 Z"/>
 <path fill="rgb(87,157,28)" stroke="none" d="M 19711,12262 L 19961,12262 19836,12012 19711,12262 Z"/>
 <path fill="none" stroke="rgb(87,157,28)" stroke-linejoin="round" d="M 19711,12262 L 19961,12262 19836,12012 19711,12262 Z"/>
 <path fill="rgb(87,157,28)" stroke="none" d="M 20148,12525 L 20398,12525 20273,12275 20148,12525 Z"/>
 <path fill="none" stroke="rgb(87,157,28)" stroke-linejoin="round" d="M 20148,12525 L 20398,12525 20273,12275 20148,12525 Z"/>
 <path fill="rgb(87,157,28)" stroke="none" d="M 20584,12789 L 20834,12789 20709,12539 20584,12789 Z"/>
 <path fill="none" stroke="rgb(87,157,28)" stroke-linejoin="round" d="M 20584,12789 L 20834,12789 20709,12539 20584,12789 Z"/>
 <path fill="rgb(87,157,28)" stroke="none" d="M 21020,13053 L 21270,13053 21145,12803 21020,13053 Z"/>
 <path fill="none" stroke="rgb(87,157,28)" stroke-linejoin="round" d="M 21020,13053 L 21270,13053 21145,12803 21020,13053 Z"/>
 <path fill="rgb(87,157,28)" stroke="none" d="M 21457,13317 L 21707,13317 21582,13067 21457,13317 Z"/>
 <path fill="none" stroke="rgb(87,157,28)" stroke-linejoin="round" d="M 21457,13317 L 21707,13317 21582,13067 21457,13317 Z"/>
 <path fill="rgb(87,157,28)" stroke="none" d="M 21893,13581 L 22143,13581 22018,13331 21893,13581 Z"/>
 <path fill="none" stroke="rgb(87,157,28)" stroke-linejoin="round" d="M 21893,13581 L 22143,13581 22018,13331 21893,13581 Z"/>
 <path fill="rgb(87,157,28)" stroke="none" d="M 22330,13845 L 22580,13845 22455,13595 22330,13845 Z"/>
 <path fill="none" stroke="rgb(87,157,28)" stroke-linejoin="round" d="M 22330,13845 L 22580,13845 22455,13595 22330,13845 Z"/>
 <path fill="rgb(87,157,28)" stroke="none" d="M 22766,14108 L 23016,14108 22891,13858 22766,14108 Z"/>
 <path fill="none" stroke="rgb(87,157,28)" stroke-linejoin="round" d="M 22766,14108 L 23016,14108 22891,13858 22766,14108 Z"/>
 <path fill="rgb(87,157,28)" stroke="none" d="M 23203,14372 L 23453,14372 23328,14122 23203,14372 Z"/>
 <path fill="none" stroke="rgb(87,157,28)" stroke-linejoin="round" d="M 23203,14372 L 23453,14372 23328,14122 23203,14372 Z"/>
 <path fill="rgb(87,157,28)" stroke="none" d="M 23639,14636 L 23889,14636 23764,14386 23639,14636 Z"/>
 <path fill="none" stroke="rgb(87,157,28)" stroke-linejoin="round" d="M 23639,14636 L 23889,14636 23764,14386 23639,14636 Z"/>
 <path fill="rgb(87,157,28)" stroke="none" d="M 24075,14900 L 24325,14900 24200,14650 24075,14900 Z"/>
 <path fill="none" stroke="rgb(87,157,28)" stroke-linejoin="round" d="M 24075,14900 L 24325,14900 24200,14650 24075,14900 Z"/>
 <path fill="rgb(87,157,28)" stroke="none" d="M 24512,15164 L 24762,15164 24637,14914 24512,15164 Z"/>
 <path fill="none" stroke="rgb(87,157,28)" stroke-linejoin="round" d="M 24512,15164 L 24762,15164 24637,14914 24512,15164 Z"/>
 <path fill="rgb(87,157,28)" stroke="none" d="M 24948,15428 L 25198,15428 25073,15178 24948,15428 Z"/>
 <path fill="none" stroke="rgb(87,157,28)" stroke-linejoin="round" d="M 24948,15428 L 25198,15428 25073,15178 24948,15428 Z"/>
 <path fill="rgb(87,157,28)" stroke="none" d="M 25385,15692 L 25635,15692 25510,15442 25385,15692 Z"/>
 <path fill="none" stroke="rgb(87,157,28)" stroke-linejoin="round" d="M 25385,15692 L 25635,15692 25510,15442 25385,15692 Z"/>
 <path fill="rgb(87,157,28)" stroke="none" d="M 25821,15955 L 26071,15955 25946,15705 25821,15955 Z"/>
 <path fill="none" stroke="rgb(87,157,28)" stroke-linejoin="round" d="M 25821,15955 L 26071,15955 25946,15705 25821,15955 Z"/>
 <path fill="rgb(87,157,28)" stroke="none" d="M 26258,16219 L 26508,16219 26383,15969 26258,16219 Z"/>
 <path fill="none" stroke="rgb(87,157,28)" stroke-linejoin="round" d="M 26258,16219 L 26508,16219 26383,15969 26258,16219 Z"/>
 <path fill="rgb(87,157,28)" stroke="none" d="M 26694,16483 L 26944,16483 26819,16233 26694,16483 Z"/>
 <path fill="none" stroke="rgb(87,157,28)" stroke-linejoin="round" d="M 26694,16483 L 26944,16483 26819,16233 26694,16483 Z"/>
 <path fill="rgb(87,157,28)" stroke="none" d="M 27130,16747 L 27380,16747 27255,16497 27130,16747 Z"/>
 <path fill="none" stroke="rgb(87,157,28)" stroke-linejoin="round" d="M 27130,16747 L 27380,16747 27255,16497 27130,16747 Z"/>
 <path fill="rgb(87,157,28)" stroke="none" d="M 27567,17011 L 27817,17011 27692,16761 27567,17011 Z"/>
 <path fill="none" stroke="rgb(87,157,28)" stroke-linejoin="round" d="M 27567,17011 L 27817,17011 27692,16761 27567,17011 Z"/>
 <path fill="rgb(87,157,28)" stroke="none" d="M 28003,17275 L 28253,17275 28128,17025 28003,17275 Z"/>
 <path fill="none" stroke="rgb(87,157,28)" stroke-linejoin="round" d="M 28003,17275 L 28253,17275 28128,17025 28003,17275 Z"/>
 <path fill="rgb(87,157,28)" stroke="none" d="M 28440,17538 L 28690,17538 28565,17288 28440,17538 Z"/>
 <path fill="none" stroke="rgb(87,157,28)" stroke-linejoin="round" d="M 28440,17538 L 28690,17538 28565,17288 28440,17538 Z"/>
 <path fill="rgb(87,157,28)" stroke="none" d="M 28876,17802 L 29126,17802 29001,17552 28876,17802 Z"/>
 <path fill="none" stroke="rgb(87,157,28)" stroke-linejoin="round" d="M 28876,17802 L 29126,17802 29001,17552 28876,17802 Z"/>
 <path fill="rgb(87,157,28)" stroke="none" d="M 29313,18066 L 29563,18066 29438,17816 29313,18066 Z"/>
 <path fill="none" stroke="rgb(87,157,28)" stroke-linejoin="round" d="M 29313,18066 L 29563,18066 29438,17816 29313,18066 Z"/>
 <text class="TextShape"><tspan class="TextParagraph" font-family="Times New Roman" font-size="353px" font-weight="400"><tspan class="TextPosition" x="1428" y="20276"><tspan fill="rgb(0,0,0)" stroke="none">0</tspan></tspan></tspan></text>
 <text class="TextShape"><tspan class="TextParagraph" font-family="Times New Roman" font-size="353px" font-weight="400"><tspan class="TextPosition" x="5713" y="20276"><tspan fill="rgb(0,0,0)" stroke="none">10</tspan></tspan></tspan></text>
 <text class="TextShape"><tspan class="TextParagraph" font-family="Times New Roman" font-size="353px" font-weight="400"><tspan class="TextPosition" x="10077" y="20276"><tspan fill="rgb(0,0,0)" stroke="none">20</tspan></tspan></tspan></text>
 <text class="TextShape"><tspan class="TextParagraph" font-family="Times New Roman" font-size="353px" font-weight="400"><tspan class="TextPosition" x="14441" y="20276"><tspan fill="rgb(0,0,0)" stroke="none">30</tspan></tspan></tspan></text>
 <text class="TextShape"><tspan class="TextParagraph" font-family="Times New Roman" font-size="353px" font-weight="400"><tspan class="TextPosition" x="18805" y="20276"><tspan fill="rgb(0,0,0)" stroke="none">40</tspan></tspan></tspan></text>
 <text class="TextShape"><tspan class="TextParagraph" font-family="Times New Roman" font-size="353px" font-weight="400"><tspan class="TextPosition" x="23170" y="20276"><tspan fill="rgb(0,0,0)" stroke="none">50</tspan></tspan></tspan></text>
 <text class="TextShape"><tspan class="TextParagraph" font-family="Times New Roman" font-size="353px" font-weight="400"><tspan class="TextPosition" x="27534" y="20276"><tspan fill="rgb(0,0,0)" stroke="none">60</tspan></tspan></tspan></text>
 <text class="TextShape"><tspan class="TextParagraph" font-family="Times New Roman" font-size="353px" font-weight="400"><tspan class="TextPosition" x="491" y="19829"><tspan fill="rgb(0,0,0)" stroke="none">1E-15</tspan></tspan></tspan></text>
 <text class="TextShape"><tspan class="TextParagraph" font-family="Times New Roman" font-size="353px" font-weight="400"><tspan class="TextPosition" x="491" y="18927"><tspan fill="rgb(0,0,0)" stroke="none">1E-14</tspan></tspan></tspan></text>
 <text class="TextShape"><tspan class="TextParagraph" font-family="Times New Roman" font-size="353px" font-weight="400"><tspan class="TextPosition" x="491" y="18025"><tspan fill="rgb(0,0,0)" stroke="none">1E-13</tspan></tspan></tspan></text>
 <text class="TextShape"><tspan class="TextParagraph" font-family="Times New Roman" font-size="353px" font-weight="400"><tspan class="TextPosition" x="491" y="17124"><tspan fill="rgb(0,0,0)" stroke="none">1E-12</tspan></tspan></tspan></text>
 <text class="TextShape"><tspan class="TextParagraph" font-family="Times New Roman" font-size="353px" font-weight="400"><tspan class="TextPosition" x="491" y="16222"><tspan fill="rgb(0,0,0)" stroke="none">1E-11</tspan></tspan></tspan></text>
 <text class="TextShape"><tspan class="TextParagraph" font-family="Times New Roman" font-size="353px" font-weight="400"><tspan class="TextPosition" x="491" y="15320"><tspan fill="rgb(0,0,0)" stroke="none">1E-10</tspan></tspan></tspan></text>
 <text class="TextShape"><tspan class="TextParagraph" font-family="Times New Roman" font-size="353px" font-weight="400"><tspan class="TextPosition" x="491" y="14419"><tspan fill="rgb(0,0,0)" stroke="none">1E-09</tspan></tspan></tspan></text>
 <text class="TextShape"><tspan class="TextParagraph" font-family="Times New Roman" font-size="353px" font-weight="400"><tspan class="TextPosition" x="491" y="13517"><tspan fill="rgb(0,0,0)" stroke="none">1E-08</tspan></tspan></tspan></text>
 <text class="TextShape"><tspan class="TextParagraph" font-family="Times New Roman" font-size="353px" font-weight="400"><tspan class="TextPosition" x="491" y="12615"><tspan fill="rgb(0,0,0)" stroke="none">1E-07</tspan></tspan></tspan></text>
 <text class="TextShape"><tspan class="TextParagraph" font-family="Times New Roman" font-size="353px" font-weight="400"><tspan class="TextPosition" x="491" y="11714"><tspan fill="rgb(0,0,0)" stroke="none">1E-06</tspan></tspan></tspan></text>
 <text class="TextShape"><tspan class="TextParagraph" font-family="Times New Roman" font-size="353px" font-weight="400"><tspan class="TextPosition" x="491" y="10812"><tspan fill="rgb(0,0,0)" stroke="none">1E-05</tspan></tspan></tspan></text>
 <text class="TextShape"><tspan class="TextParagraph" font-family="Times New Roman" font-size="353px" font-weight="400"><tspan class="TextPosition" x="491" y="9910"><tspan fill="rgb(0,0,0)" stroke="none">1E-04</tspan></tspan></tspan></text>
 <text class="TextShape"><tspan class="TextParagraph" font-family="Times New Roman" font-size="353px" font-weight="400"><tspan class="TextPosition" x="491" y="9008"><tspan fill="rgb(0,0,0)" stroke="none">1E-03</tspan></tspan></tspan></text>
 <text class="TextShape"><tspan class="TextParagraph" font-family="Times New Roman" font-size="353px" font-weight="400"><tspan class="TextPosition" x="491" y="8107"><tspan fill="rgb(0,0,0)" stroke="none">1E-02</tspan></tspan></tspan></text>
 <text class="TextShape"><tspan class="TextParagraph" font-family="Times New Roman" font-size="353px" font-weight="400"><tspan class="TextPosition" x="491" y="7205"><tspan fill="rgb(0,0,0)" stroke="none">1E-01</tspan></tspan></tspan></text>
 <text class="TextShape"><tspan class="TextParagraph" font-family="Times New Roman" font-size="353px" font-weight="400"><tspan class="TextPosition" x="411" y="6303"><tspan fill="rgb(0,0,0)" stroke="none">1E+00</tspan></tspan></tspan></text>
 <text class="TextShape"><tspan class="TextParagraph" font-family="Times New Roman" font-size="353px" font-weight="400"><tspan class="TextPosition" x="411" y="5402"><tspan fill="rgb(0,0,0)" stroke="none">1E+01</tspan></tspan></tspan></text>
 <text class="TextShape"><tspan class="TextParagraph" font-family="Times New Roman" font-size="353px" font-weight="400"><tspan class="TextPosition" x="411" y="4500"><tspan fill="rgb(0,0,0)" stroke="none">1E+02</tspan></tspan></tspan></text>
 <text class="TextShape"><tspan class="TextParagraph" font-family="Times New Roman" font-size="353px" font-weight="400"><tspan class="TextPosition" x="411" y="3598"><tspan fill="rgb(0,0,0)" stroke="none">1E+03</tspan></tspan></tspan></text>
 <text class="TextShape"><tspan class="TextParagraph" font-family="Times New Roman" font-size="353px" font-weight="400"><tspan class="TextPosition" x="411" y="2697"><tspan fill="rgb(0,0,0)" stroke="none">1E+04</tspan></tspan></tspan></text>
 <text class="TextShape"><tspan class="TextParagraph" font-family="Times New Roman" font-size="353px" font-weight="400"><tspan class="TextPosition" x="411" y="1795"><tspan fill="rgb(0,0,0)" stroke="none">1E+05</tspan></tspan></tspan></text>
 <text class="TextShape"><tspan class="TextParagraph" font-family="Times New Roman" font-size="353px" font-weight="400"><tspan class="TextPosition" x="411" y="893"><tspan fill="rgb(0,0,0)" stroke="none">1E+06</tspan></tspan></tspan></text>
 <path fill="rgb(221,221,221)" stroke="none" d="M 8624,15125 L 3690,15125 3690,12800 13558,12800 13558,15125 8624,15125 Z"/>
 <path fill="none" stroke="rgb(0,0,0)" stroke-linejoin="round" d="M 8624,15125 L 3690,15125 3690,12800 13558,12800 13558,15125 8624,15125 Z"/>
 <path fill="none" stroke="rgb(87,157,28)" stroke-width="80" stroke-linejoin="round" d="M 3988,13241 L 4788,13241"/>
 <path fill="rgb(87,157,28)" stroke="none" d="M 4240,13389 L 4536,13389 4388,13093 4240,13389 Z"/>
 <path fill="none" stroke="rgb(87,157,28)" stroke-linejoin="round" d="M 4240,13389 L 4536,13389 4388,13093 4240,13389 Z"/>
 <path fill="none" stroke="rgb(126,0,33)" stroke-width="80" stroke-linejoin="round" d="M 3988,13961 L 4788,13961"/>
 <path fill="rgb(126,0,33)" stroke="none" d="M 4240,13813 L 4240,14109 4536,13961 4240,13813 Z"/>
 <path fill="none" stroke="rgb(126,0,33)" stroke-linejoin="round" d="M 4240,13813 L 4240,14109 4536,13961 4240,13813 Z"/>
 <path fill="none" stroke="rgb(49,64,4)" stroke-width="80" stroke-linejoin="round" d="M 3988,14681 L 4788,14681"/>
 <path fill="rgb(49,64,4)" stroke="none" d="M 4240,14533 L 4240,14829 4536,14533 4536,14829 4240,14533 Z"/>
 <path fill="none" stroke="rgb(49,64,4)" stroke-linejoin="round" d="M 4240,14533 L 4240,14829 4536,14533 4536,14829 4240,14533 Z"/>
 <text class="TextShape"><tspan class="TextParagraph" font-family="Liberation Sans" font-size="494px" font-weight="400"><tspan class="TextPosition" x="4896" y="13413"><tspan fill="rgb(0,0,0)" stroke="none">SymGS</tspan></tspan></tspan></text>
 <text class="TextShape"><tspan class="TextParagraph" font-family="Liberation Sans" font-size="494px" font-weight="400"><tspan class="TextPosition" x="4896" y="14133"><tspan fill="rgb(0,0,0)" stroke="none">MulticolorOrdering-SymGS</tspan></tspan></tspan></text>
 <text class="TextShape"><tspan class="TextParagraph" font-family="Liberation Sans" font-size="494px" font-weight="400"><tspan class="TextPosition" x="4896" y="14853"><tspan fill="rgb(0,0,0)" stroke="none">BlockMulticolorOrdering(4x4)-SymGS</tspan></tspan></tspan></text>
 <text class="TextShape"><tspan class="TextParagraph" font-family="Times New Roman" font-size="318px" font-weight="400"><tspan class="TextPosition" x="28445" y="20185"><tspan fill="rgb(0,0,0)" stroke="none">iteration</tspan></tspan></tspan></text>
 <text class="TextShape"><tspan class="TextParagraph" font-family="Times New Roman" font-size="318px" font-weight="400"><tspan class="TextPosition" x="467" y="415"><tspan fill="rgb(0,0,0)" stroke="none">residual</tspan></tspan></tspan></text>
</svg>